Get Mean Ratio for Each Gene x Cell Type (Old internal version) — .get_mean_ratio2 • DeconvoBuddies
…
    Table of mean ratio for each x cell type

    Details

    Improved efficiency and ability to handle large data sets from get_mean_ratio().

    Examples

#' ## load example SingleCellExperiment
if (!exists("sce_DLPFC_example")) sce_DLPFC_example <- fetch_deconvo_data("sce_DLPFC_example")
#> 2024-08-23 22:31:02.706166 loading file /github/home/.cache/R/BiocFileCache/1d45c9bd515_sce_DLPFC_example.Rdata%3Frlkey%3Dv3z4u8ru0d2y12zgdl1az07q9%26st%3D1dcfqc1i%26dl%3D1

## Get the mean ratio for each gene for each cell type defined in `cellType_broad_hc`
.get_mean_ratio2(sce_DLPFC_example, cellType_col = "cellType_broad_hc")
#> # A tibble: 762 × 8
#>    gene  cellType.target mean.target cellType   mean ratio rank_ratio anno_ratio
#>    <chr> <fct>                 <dbl> <fct>     <dbl> <dbl>      <int> <chr>     
#>  1 CD22  Oligo                  1.36 OPC      0.0730  18.6          1 Oligo/OPC…
#>  2 LINC… Oligo                  2.39 Micro    0.142   16.8          2 Oligo/Mic…
#>  3 FOLH1 Oligo                  1.59 OPC      0.101   15.7          3 Oligo/OPC…
#>  4 SLC5… Oligo                  2.14 Micro    0.145   14.7          4 Oligo/Mic…
#>  5 AC01… Oligo                  2.42 OPC      0.169   14.3          5 Oligo/OPC…
#>  6 ST18  Oligo                  4.65 OPC      0.329   14.1          6 Oligo/OPC…
#>  7 MAG   Oligo                  1.44 Astro    0.103   14.0          7 Oligo/Ast…
#>  8 ANLN  Oligo                  1.60 Micro    0.115   13.9          8 Oligo/Mic…
#>  9 CLDN… Oligo                  1.82 EndoMur… 0.146   12.5          9 Oligo/End…
#> 10 MOG   Oligo                  2.06 OPC      0.185   11.1         10 Oligo/OPC…
#> # ℹ 752 more rows
…
