Create barplot of average cell type composition — plot_composition_bar • DeconvoBuddies
…
    Examples

# extract relevant colData from the example RangedSummarizedExperiment object
pd <- SummarizedExperiment::colData(rse_bulk_test) |>
    as.data.frame()

# combine with the example estimated proportions in a long style table
est_prop_long <- est_prop |>
    tibble::rownames_to_column("RNum") |>
    tidyr::pivot_longer(!RNum, names_to = "cell_type", values_to = "prop") |>
    dplyr::inner_join(pd |> dplyr::select(RNum, Dx))
#> Joining with `by = join_by(RNum)`

est_prop_long
#> # A tibble: 500 × 4
#>    RNum  cell_type   prop Dx     
#>    <chr> <chr>      <dbl> <chr>  
#>  1 R913  cell_A    0.380  Case   
#>  2 R913  cell_B    0.240  Case   
#>  3 R913  cell_C    0.162  Case   
#>  4 R913  cell_D    0.108  Case   
#>  5 R913  cell_E    0.111  Case   
#>  6 R602  cell_A    0.443  Control
#>  7 R602  cell_B    0.207  Control
#>  8 R602  cell_C    0.0743 Control
#>  9 R602  cell_D    0.160  Control
#> 10 R602  cell_E    0.115  Control
#> # ℹ 490 more rows
…
