Introduction to DeconvoBuddies • DeconvoBuddies
…
Marker Finding

Using MeanRatio to Find Cell Type Markers

Accurate deconvolution requires highly specific marker genes for each
cell type to be defined. To select genes specific for each cell type,
you can evaluate the mean ratio for each gene x each cell
type, where
mean ratio = mean(Expression  of target cell type)/mean(Expression of highest non-target cell type).
These values can be calculated for a single cell RNA-seq dataset using
get_mean_ratio2().

my_mean_ratios <- get_mean_ratio2(sce.test, cellType_col = "cellType")
my_mean_ratios
#> # A tibble: 1,778 × 9
#>    gene       cellType.target mean.target cellType  mean ratio rank_ratio Symbol
#>    <chr>      <fct>                 <dbl> <fct>    <dbl> <dbl>      <int> <chr> 
#>  1 ENSG00000… Inhib.2               1.00  Excit.2  0.239  4.20          1 AL139…
#>  2 ENSG00000… Inhib.2               1.71  Astro    0.512  3.35          2 SDC3  
#>  3 ENSG00000… Inhib.2               0.950 Astro    0.413  2.30          3 IFI44 
#>  4 ENSG00000… Inhib.2               3.32  Astro    1.47   2.26          4 COL11…
#>  5 ENSG00000… Inhib.2               3.55  Astro    1.62   2.19          5 NTNG1 
#>  6 ENSG00000… Inhib.2               1.22  Excit.1  0.560  2.18          6 TRIM62
#>  7 ENSG00000… Inhib.2               3.37  Excit.2  1.96   1.72          7 USP24 
#>  8 ENSG00000… Inhib.2               3.42  Inhib.1  2.44   1.40          8 SPATA6
#>  9 ENSG00000… Inhib.2               1.21  Astro    0.914  1.33          9 ABCD3 
#> 10 ENSG00000… Inhib.2               1.21  Astro    0.920  1.32         10 GNG12 
#> # ℹ 1,768 more rows
#> # ℹ 1 more variable: anno_ratio <chr>
…
Visualize deconvolution results with a stacked barplot showing the
average cell type proportion for a group.

pd <- colData(rse_bulk_test) |>
    as.data.frame()

## need to pivot data to long format
est_prop_long <- est_prop |>
    rownames_to_column("RNum") |>
    pivot_longer(!RNum, names_to = "cell_type", values_to = "prop") |>
    left_join(pd |> dplyr::select(RNum, Dx))
#> Joining with `by = join_by(RNum)`

est_prop_long
#> # A tibble: 500 × 4
#>    RNum  cell_type   prop Dx   
#>    <chr> <chr>      <dbl> <chr>
#>  1 R071  cell_A    0.390  NA   
#>  2 R071  cell_B    0.378  NA   
#>  3 R071  cell_C    0.0400 NA   
#>  4 R071  cell_D    0.147  NA   
#>  5 R071  cell_E    0.0441 NA   
#>  6 R632  cell_A    0.405  NA   
#>  7 R632  cell_B    0.239  NA   
#>  8 R632  cell_C    0.263  NA   
#>  9 R632  cell_D    0.0326 NA   
#> 10 R632  cell_E    0.0600 NA   
#> # ℹ 490 more rows
…
