2. Finding Marker Genes with DeconvoBuddies • DeconvoBuddies
…
MeanRatio.rank is the rank of MeanRatio
for the cell type.

MeanRatio.anno is an annotation of the
MeanRatio calculation helpful for plotting.

gene_ensembl & gene_name optional cols
from rowData(sce) specified by the user to add gene
information

## Explore the tibble output
marker_stats_MeanRatio
#> # A tibble: 1,721 × 10
#>    gene     cellType.target mean.target cellType.2nd mean.2nd MeanRatio
#>    <chr>    <fct>                 <dbl> <fct>           <dbl>     <dbl>
#>  1 LYPD6B   Inhib                 1.20  Excit          0.0967     12.4 
#>  2 GREM2    Inhib                 1.20  Excit          0.271       4.44
#>  3 IGSF3    Inhib                 0.899 Excit          0.241       3.72
#>  4 GALNT14  Inhib                 1.86  Excit          0.503       3.69
#>  5 LYPD6    Inhib                 1.09  Astro          0.435       2.51
#>  6 SLC35D1  Inhib                 0.781 OPC            0.375       2.08
#>  7 FLVCR1   Inhib                 0.576 Excit          0.336       1.72
#>  8 RAVER2   Inhib                 1.09  OPC            0.651       1.68
#>  9 ARHGEF11 Inhib                 1.81  Excit          1.10        1.64
#> 10 VAV3     Inhib                 1.68  Astro          1.03        1.63
#> # ℹ 1,711 more rows
#> # ℹ 4 more variables: MeanRatio.rank <int>, MeanRatio.anno <chr>,
#> #   gene_ensembl <chr>, gene_name <chr>
…
std.logFC the standard logFC

cellType.target the cell type we’re finding marker
genes for

std.logFC.rank the rank of std.logFC for
each cell type

std.logFC.anno is an annotation of the
std.logFC value helpful for plotting.

## Explore the tibble output
marker_stats_1vAll
#> # A tibble: 35,000 × 8
#> # Groups:   cellType.target [7]
#>    gene    logFC log.p.value log.FDR std.logFC cellType.target std.logFC.rank
#>    <chr>   <dbl>       <dbl>   <dbl>     <dbl> <fct>                    <int>
#>  1 SILC1   2.77       -6747.  -6739.      1.42 Inhib                        1
#>  2 LYPD6B  2.48       -6338.  -6330.      1.37 Inhib                        2
#>  3 LYPD6   2.18       -6147.  -6140.      1.35 Inhib                        3
#>  4 ALK     4.56       -5707.  -5700.      1.30 Inhib                        4
#>  5 WLS     3.26       -5111.  -5104.      1.22 Inhib                        5
#>  6 PLD5    5.85       -4711.  -4704.      1.17 Inhib                        6
#>  7 KIRREL1 1.04       -4539.  -4532.      1.14 Inhib                        7
#>  8 TRIM67  0.622      -4326.  -4319.      1.11 Inhib                        8
#>  9 GREM2   2.11       -4048.  -4042.      1.07 Inhib                        9
#> 10 IGSF3   1.27       -3783.  -3777.      1.04 Inhib                       10
#> # ℹ 34,990 more rows
#> # ℹ 1 more variable: std.logFC.anno <chr>
…
